Type Name Population Country Area
City Sibiu 150000 Romania
City Brasov 225000 Romania
City Bucuresti 1880000 Romania
Country Romania 19000000  240000
Country France 67000000  550000
Country Spain 47000000  506000
City Madrid 3400000 Spain
City Barcelona 4900000 Spain
City Paris 12000000 France
City Lyon 19000000 France